^C:\USERS\ADMINISTRATOR.D21.003\DOCUMENTS\VISUAL STUDIO 2010\PROJECTS\DS11\1\DEBUG\MAIN.OBJ
C:\USERS\ADMINISTRATOR.D21.003\DOCUMENTS\VISUAL STUDIO 2010\PROJECTS\DS11\DEBUG\1.ILK
C:\USERS\ADMINISTRATOR.D21.003\DOCUMENTS\VISUAL STUDIO 2010\PROJECTS\DS11\DEBUG\1.EXE
C:\USERS\ADMINISTRATOR.D21.003\DOCUMENTS\VISUAL STUDIO 2010\PROJECTS\DS11\1\DEBUG\1.EXE.INTERMEDIATE.MANIFEST
C:\USERS\ADMINISTRATOR.D21.003\DOCUMENTS\VISUAL STUDIO 2010\PROJECTS\DS11\DEBUG\1.PDB
